<?xml version="1.0" encoding="UTF-8" standalone="no"?>
<svg
   width="296mm"
   height="252.99999999999994mm"
   viewBox="-205 -99.99999999999997 296 252.99999999999994"
   version="1.1"
   id="svg1"
   sodipodi:docname="Haus - klein.svg"
   inkscape:version="1.3.2 (091e20e, 2023-11-25)"
   xmlns:inkscape="http://www.inkscape.org/namespaces/inkscape"
   xmlns:sodipodi="http://sodipodi.sourceforge.net/DTD/sodipodi-0.dtd"
   xmlns="http://www.w3.org/2000/svg"
   xmlns:svg="http://www.w3.org/2000/svg"
   xmlns:rdf="http://www.w3.org/1999/02/22-rdf-syntax-ns#"
   xmlns:cc="http://creativecommons.org/ns#"
   xmlns:dc="http://purl.org/dc/elements/1.1/">
  <defs
     id="defs1" />
  <sodipodi:namedview
     id="namedview1"
     pagecolor="#ffffff"
     bordercolor="#000000"
     borderopacity="0.25"
     inkscape:showpageshadow="2"
     inkscape:pageopacity="0.0"
     inkscape:pagecheckerboard="0"
     inkscape:deskcolor="#d1d1d1"
     inkscape:document-units="mm"
     inkscape:zoom="0.62480997"
     inkscape:cx="559.37008"
     inkscape:cy="477.74526"
     inkscape:window-width="1392"
     inkscape:window-height="962"
     inkscape:window-x="2240"
     inkscape:window-y="25"
     inkscape:window-maximized="0"
     inkscape:current-layer="svg1" />
  <title
     id="title1">svgOutput</title>
  <desc
     id="desc1">made with tinkercad</desc>
  <path
     d="M 90 -18.999999999999996 L 81.00299835205078 -18.999999999999996 L 81.00299835205078 -59.00299835205077 L 78 -59.00299835205077 L 77 -59.00299835205077 L 70.99800109863281 -59.00299835205077 L 70.99800109863281 -18.999999999999996 L 10.003000259399414 -18.999999999999996 L 10.003000259399414 -59.00299835205077 L -0.003000000026077032 -59.00299835205077 L -0.003000000026077032 -18.999999999999996 L -10 -18.999999999999996 L -10 -98.99999999999997 L -0.003000000026077032 -98.99999999999997 L 10.003000259399414 -98.99999999999997 L 70.99800109863281 -98.99999999999997 L 77 -98.99999999999997 L 78 -98.99999999999997 L 81.00299835205078 -98.99999999999997 L 90 -98.99999999999997 L 90 -18.999999999999996 M 78 151.99999999999997 L 77 151.99999999999997 L 68.00299835205078 151.99999999999997 L 68.00299835205078 111.99800109863278 L 57.99800109863281 111.99800109863278 L 57.99800109863281 151.99999999999997 L -41.99800109863281 151.99999999999997 L -41.99800109863281 111.99800109863278 L -52.00299835205078 111.99800109863278 L -52.00299835205078 151.99999999999997 L -62 151.99999999999997 L -62 71.99999999999999 L -52.00299835205078 71.99999999999999 L -41.99800109863281 71.99999999999999 L 57.99800109863281 71.99999999999999 L 68.00299835205078 71.99999999999999 L 77 71.99999999999999 L 78 71.99999999999999 L 78 151.99999999999997 M -25 -17.999999999999996 L -33.99800109863281 -17.999999999999996 L -33.99800109863281 -58.00299835205077 L -44.00299835205078 -58.00299835205077 L -44.00299835205078 -17.999999999999996 L -63 -17.999999999999996 L -69 -17.999999999999996 L -104.99800109863281 -17.999999999999996 L -104.99800109863281 -58.00299835205077 L -115.00299835205078 -58.00299835205077 L -115.00299835205078 -17.999999999999996 L -125 -17.999999999999996 L -125 -97.99999999999997 L -115.00299835205078 -97.99999999999997 L -104.99800109863281 -97.99999999999997 L -69 -97.99999999999997 L -63 -97.99999999999997 L -44.00299835205078 -97.99999999999997 L -33.99800109863281 -97.99999999999997 L -25 -97.99999999999997 L -25 -17.999999999999996 M 77 67.99999999999999 L 67.00299835205078 67.99999999999999 L 67.00299835205078 27.997999191284173 L 56.99800109863281 27.997999191284173 L 56.99800109863281 67.99999999999999 L 27.99799919128418 67.99999999999999 L 18.003000259399414 67.99999999999999 L 18.003000259399414 7.998000144958494 L -2.003000020980835 7.998000144958494 L -2.003000020980835 26.003000259399407 L -2.003000020980835 67.99999999999999 L -32.00199890136719 67.99999999999999 L -42.99800109863281 67.99999999999999 L -42.99800109863281 27.997999191284173 L -53.00299835205078 27.997999191284173 L -53.00299835205078 67.99999999999999 L -62 67.99999999999999 L -63 67.99999999999999 L -63 -11.999999999999996 L -53.00299835205078 -11.999999999999996 L -42.99800109863281 -11.999999999999996 L -32.00199890136719 -11.999999999999996 L -25 -11.999999999999996 L -11.998000144958496 -11.999999999999996 L -10 -11.999999999999996 L -2.003000020980835 -11.999999999999996 L 18.003000259399414 -11.999999999999996 L 27.99799919128418 -11.999999999999996 L 48.00299835205078 -11.999999999999996 L 77 -11.999999999999996 L 77 26.003000259399407 L 77 67.99999999999999 M -125 -6.999999999999998 L -69 -6.999999999999998 L -69 82.99999999999999 L -204 82.99999999999999 L -204 -6.999999999999998 L -125 -6.999999999999998 M 32.44300079345703 24.316999435424798 L 32.768001556396484 24.511537551879876 L 33.28499984741211 24.820999145507805 L 34.172000885009766 25.24099922180175 L 35.09600067138672 25.572000503540032 L 36.04899978637695 25.809999465942376 L 37.02000045776367 25.954000473022454 L 38 26.003000259399407 L 38.97999954223633 25.954000473022454 L 39.95100021362305 25.809999465942376 L 40.90399932861328 25.572000503540032 L 40.959999084472656 25.55193901062011 L 41.827999114990234 25.24099922180175 L 42.71500015258789 24.820999145507805 L 43.55699920654297 24.316999435424798 L 44.34600067138672 23.732000350952145 L 45.073001861572266 23.07299995422363 L 45.731998443603516 22.346000671386715 L 46.31700134277344 21.556999206542965 L 46.82099914550781 20.715000152587887 L 47.24100112915039 19.82799911499023 L 47.571998596191406 18.903999328613278 L 47.810001373291016 17.951000213623043 L 47.95399856567383 16.979999542236325 L 47.98379898071289 16.38400077819824 L 48.00299835205078 15.999999999999996 L 47.95399856567383 15.020000457763668 L 47.810001373291016 14.04899978637695 L 47.571998596191406 13.095999717712399 L 47.24100112915039 12.171999931335446 L 46.82099914550781 11.284999847412108 L 46.31700134277344 10.442999839782713 L 45.731998443603516 9.654000282287596 L 45.073001861572266 8.927000045776365 L 44.34600067138672 8.26799964904785 L 43.55699920654297 7.683000087738035 L 42.71500015258789 7.178999900817869 L 41.827999114990234 6.758999824523924 L 40.959999084472656 6.448060512542723 L 40.90399932861328 6.427999973297117 L 39.95100021362305 6.190000057220457 L 38.97999954223633 6.0460000038146955 L 38 5.998000144958495 L 37.02000045776367 6.0460000038146955 L 36.04899978637695 6.190000057220457 L 35.09600067138672 6.427999973297117 L 34.172000885009766 6.758999824523924 L 33.28499984741211 7.178999900817869 L 32.768001556396484 7.488463401794432 L 32.44300079345703 7.683000087738035 L 31.65399932861328 8.26799964904785 L 30.927000045776367 8.927000045776365 L 30.26799964904785 9.654000282287596 L 29.683000564575195 10.442999839782713 L 29.179000854492188 11.284999847412108 L 28.759000778198242 12.171999931335446 L 28.42799949645996 13.095999717712399 L 28.190000534057617 14.04899978637695 L 28.04599952697754 15.020000457763668 L 27.99799919128418 15.999999999999996 L 28.016807556152344 16.38400077819824 L 28.04599952697754 16.979999542236325 L 28.190000534057617 17.951000213623043 L 28.42799949645996 18.903999328613278 L 28.759000778198242 19.82799911499023 L 29.179000854492188 20.715000152587887 L 29.683000564575195 21.556999206542965 L 30.26799964904785 22.346000671386715 L 30.927000045776367 23.07299995422363 L 31.65399932861328 23.732000350952145 L 32.44300079345703 24.316999435424798 M -24.90399932861328 25.572000503540032 L -24.576000213623047 25.653913497924798 L -23.951000213623047 25.809999465942376 L -22.979999542236328 25.954000473022454 L -22 26.003000259399407 L -21.020000457763672 25.954000473022454 L -20.048999786376953 25.809999465942376 L -19.09600067138672 25.572000503540032 L -18.172000885009766 25.24099922180175 L -17.28499984741211 24.820999145507805 L -16.44300079345703 24.316999435424798 L -16.384000778198242 24.273254394531243 L -15.654000282287598 23.732000350952145 L -14.927000045776367 23.07299995422363 L -14.267999649047852 22.346000671386715 L -13.682999610900879 21.556999206542965 L -13.178999900817871 20.715000152587887 L -12.758999824523926 19.82799911499023 L -12.428000450134277 18.903999328613278 L -12.1899995803833 17.951000213623043 L -12.045999526977539 16.979999542236325 L -12.01680850982666 16.38400077819824 L -11.998000144958496 15.999999999999996 L -12.045999526977539 15.020000457763668 L -12.1899995803833 14.04899978637695 L -12.428000450134277 13.095999717712399 L -12.758999824523926 12.171999931335446 L -13.178999900817871 11.284999847412108 L -13.682999610900879 10.442999839782713 L -14.267999649047852 9.654000282287596 L -14.927000045776367 8.927000045776365 L -15.654000282287598 8.26799964904785 L -16.384000778198242 7.72674512863159 L -16.44300079345703 7.683000087738035 L -17.28499984741211 7.178999900817869 L -18.172000885009766 6.758999824523924 L -19.09600067138672 6.427999973297117 L -20.048999786376953 6.190000057220457 L -21.020000457763672 6.0460000038146955 L -22 5.998000144958495 L -22.979999542236328 6.0460000038146955 L -23.951000213623047 6.190000057220457 L -24.576000213623047 6.346086025238035 L -24.90399932861328 6.427999973297117 L -25.827999114990234 6.758999824523924 L -26.71500015258789 7.178999900817869 L -27.55699920654297 7.683000087738035 L -28.243497848510742 8.19200038909912 L -28.34600067138672 8.26799964904785 L -29.072999954223633 8.927000045776365 L -29.73200035095215 9.654000282287596 L -30.316999435424805 10.442999839782713 L -30.820999145507812 11.284999847412108 L -31.240999221801758 12.171999931335446 L -31.57200050354004 13.095999717712399 L -31.809999465942383 14.04899978637695 L -31.95400047302246 15.020000457763668 L -32.00199890136719 15.999999999999996 L -31.983192443847656 16.38400077819824 L -31.95400047302246 16.979999542236325 L -31.809999465942383 17.951000213623043 L -31.57200050354004 18.903999328613278 L -31.240999221801758 19.82799911499023 L -30.820999145507812 20.715000152587887 L -30.316999435424805 21.556999206542965 L -29.73200035095215 22.346000671386715 L -29.072999954223633 23.07299995422363 L -28.34600067138672 23.732000350952145 L -27.55699920654297 24.316999435424798 L -26.71500015258789 24.820999145507805 L -25.827999114990234 25.24099922180175 L -24.90399932861328 25.572000503540032 z"
     fill="none"
     stroke="rgb(255,0,0)"
     stroke-width="0.001mm"
     id="path1"
     style="stroke-width:0.3;stroke-dasharray:none"
     inkscape:label="path1" />
  <metadata
     id="metadata1">
    <rdf:RDF>
      <cc:Work
         rdf:about="">
        <dc:title>svgOutput</dc:title>
      </cc:Work>
    </rdf:RDF>
  </metadata>
</svg>
